module gitlab.com/liguros/ego

go 1.21

toolchain go1.21.5

require (
	github.com/amalfra/recorder v1.0.1
	github.com/eidolon/wordwrap v0.0.0-20161011182207-e0f54129b8bb
	github.com/go-git/go-git/v5 v5.11.0
	github.com/knadh/koanf/parsers/yaml v0.1.0
	github.com/knadh/koanf/providers/file v0.1.0
	github.com/knadh/koanf/v2 v2.1.0
	github.com/otiai10/copy v1.14.0
	github.com/urfave/cli/v2 v2.27.1
	gitlab.com/bluebottle/go-modules/misc v0.0.7
	golang.org/x/sys v0.17.0
	gopkg.in/ini.v1 v1.67.0
)

require (
	dario.cat/mergo v1.0.0 // indirect
	github.com/Microsoft/go-winio v0.6.1 // indirect
	github.com/ProtonMail/go-crypto v0.0.0-20230828082145-3c4c8a2d2371 // indirect
	github.com/cloudflare/circl v1.3.3 // indirect
	github.com/cpuguy83/go-md2man/v2 v2.0.2 // indirect
	github.com/cyphar/filepath-securejoin v0.2.4 // indirect
	github.com/emirpasic/gods v1.18.1 // indirect
	github.com/fsnotify/fsnotify v1.6.0 // indirect
	github.com/go-git/gcfg v1.5.1-0.20230307220236-3a3c6141e376 // indirect
	github.com/go-git/go-billy/v5 v5.5.0 // indirect
	github.com/go-viper/mapstructure/v2 v2.0.0-alpha.1 // indirect
	github.com/golang/groupcache v0.0.0-20210331224755-41bb18bfe9da // indirect
	github.com/jbenet/go-context v0.0.0-20150711004518-d14ea06fba99 // indirect
	github.com/kevinburke/ssh_config v1.2.0 // indirect
	github.com/knadh/koanf/maps v0.1.1 // indirect
	github.com/mitchellh/copystructure v1.2.0 // indirect
	github.com/mitchellh/reflectwalk v1.0.2 // indirect
	github.com/pjbgf/sha1cd v0.3.0 // indirect
	github.com/russross/blackfriday/v2 v2.1.0 // indirect
	github.com/sergi/go-diff v1.1.0 // indirect
	github.com/skeema/knownhosts v1.2.1 // indirect
	github.com/xanzy/ssh-agent v0.3.3 // indirect
	github.com/xrash/smetrics v0.0.0-20201216005158-039620a65673 // indirect
	golang.org/x/crypto v0.16.0 // indirect
	golang.org/x/mod v0.12.0 // indirect
	golang.org/x/net v0.19.0 // indirect
	golang.org/x/sync v0.3.0 // indirect
	golang.org/x/tools v0.13.0 // indirect
	gopkg.in/warnings.v0 v0.1.2 // indirect
	gopkg.in/yaml.v3 v3.0.1 // indirect
)
